{
  "__type__": "cc.AnimationClip",
  "_name": "IDE2",
  "_objFlags": 0,
  "_native": "",
  "_duration": 1,
  "sample": 60,
  "speed": 0.3,
  "wrapMode": 2,
  "curveData": {
    "props": {
      "x": [
        {
          "frame": 0,
          "value": -537.706
        },
        {
          "frame": 1,
          "value": -897.18
        }
      ]
    }
  },
  "events": []
}